<svg width="40" height="40" viewBox="0 0 40 40" fill="none" xmlns="http://www.w3.org/2000/svg">
<path fill-rule="evenodd" clip-rule="evenodd" d="M7.08492 7.08492C7.64281 6.52703 8.54734 6.52703 9.10523 7.08492L19.9998 17.9795L30.8944 7.08492C31.4523 6.52703 32.3569 6.52703 32.9147 7.08492C33.4726 7.64281 33.4726 8.54734 32.9147 9.10523L22.0201 19.9998L32.9147 30.8944C33.4726 31.4523 33.4726 32.3569 32.9147 32.9147C32.3569 33.4726 31.4523 33.4726 30.8944 32.9147L19.9998 22.0201L9.10523 32.9147C8.54734 33.4726 7.64281 33.4726 7.08492 32.9147C6.52703 32.3569 6.52703 31.4523 7.08492 30.8944L17.9795 19.9998L7.08492 9.10523C6.52703 8.54734 6.52703 7.64281 7.08492 7.08492Z" fill="white"/>
</svg>
