<svg width="30" height="24" viewBox="0 0 30 24" fill="none" xmlns="http://www.w3.org/2000/svg">
<path fill-rule="evenodd" clip-rule="evenodd" d="M30 1.99967C30 2.92015 29.3674 3.66634 28.3333 3.66634L1.66667 3.66634C0.632555 3.66634 0 2.92015 0 1.99967C0 1.0792 0.632555 0.333008 1.66667 0.333008L28.3333 0.333008C29.3674 0.333008 30 1.0792 30 1.99967Z" fill="white"/>
<path fill-rule="evenodd" clip-rule="evenodd" d="M30 11.9997C30 12.9201 29.3674 13.6663 28.3333 13.6663L1.66667 13.6663C0.632555 13.6663 0 12.9201 0 11.9997C0 11.0792 0.632555 10.333 1.66667 10.333L28.3333 10.333C29.3674 10.333 30 11.0792 30 11.9997Z" fill="white"/>
<path fill-rule="evenodd" clip-rule="evenodd" d="M30 21.9997C30 22.9202 29.3674 23.6663 28.3333 23.6663H1.66667C0.632555 23.6663 0 22.9202 0 21.9997C0 21.0792 0.632555 20.333 1.66667 20.333H28.3333C29.3674 20.333 30 21.0792 30 21.9997Z" fill="white"/>
</svg>
